<?xml version="1.0" encoding="utf-8"?>
<!-- Generator: Adobe Illustrator 25.2.0, SVG Export Plug-In . SVG Version: 6.00 Build 0)  -->
<svg version="1.1" xmlns="http://www.w3.org/2000/svg" xmlns:xlink="http://www.w3.org/1999/xlink" x="0px" y="0px"
	 viewBox="0 0 300 400" style="enable-background:new 0 0 300 400;" xml:space="preserve">
<style type="text/css">
	.st0{display:none;}
	.st1{display:inline;}
	.st2{fill:#A3AFC9;}
	.st3{fill:#CAD2E3;}
	.st4{fill:#E6ECF7;}
	.st5{fill:#B33C37;}
	.st6{fill:#F1625C;}
	.st7{fill:#F1827D;}
	.st8{fill:#6D7A94;}
	.st9{fill:#FFFFFF;}
	.st10{fill:#231F20;}
	.st11{fill:#243440;}
	.st12{fill:#293B49;}
	.st13{fill:#F0BCA8;}
	.st14{fill:#79ADD1;}
	.st15{fill:#E0A38B;}
	.st16{fill:#5C4B51;}
	.st17{fill:#6797B8;}
	.st18{fill:#354C5E;}
	.st19{fill:#3E596E;}
	.st20{fill:#C4A98F;}
	.st21{fill:#1E2C36;}
	.st22{fill:#6F7EA1;}
	.st23{fill:#8C9ABA;}
</style>
<g id="Layer_1" class="st0">
	<g class="st1">
		<g>
			<g>
				<g>
					<path class="st2" d="M264.38,134.15l-17.71-30.67l3.78-2.18l17.71,30.67c3.41,5.91,5.29,12.28,5.29,17.92l0,152.56
						c0.06,0.36-0.13,0.74-0.61,1.02c-0.87,0.5-2.27,0.5-3.14,0c-0.48-0.28-0.67-0.65-0.62-1.01l0-152.57
						C269.09,145.07,267.38,139.33,264.38,134.15z"/>
					<path class="st2" d="M182.37,179.56l0-114.71c0-4.23,1.54-7.46,4.34-9.07c2.8-1.62,6.36-1.34,10.03,0.78l20.39,11.77
						c4.89,2.82,9.46,7.63,12.87,13.55l13.52,23.42l-3.78,2.18l-13.52-23.42c-2.99-5.18-7.1-9.54-11.28-11.95l-20.39-11.77
						c-2.23-1.29-4.29-1.57-5.67-0.78c-1.37,0.79-2.16,2.72-2.16,5.3l0,43.66l7.68,4.43c7.17,4.14,13,14.24,13,22.53l0,56.56
						c0,0.22-0.14,0.43-0.42,0.6c-0.57,0.33-1.49,0.33-2.06,0c-0.28-0.16-0.43-0.38-0.43-0.59h0l0-56.56
						c0-7.36-5.18-16.33-11.55-20.01l-6.22-3.59l0,67.7c0.05,0.36-0.13,0.73-0.61,1.01c-0.87,0.5-2.27,0.5-3.14,0
						C182.5,180.3,182.31,179.93,182.37,179.56z"/>
					<g>
						<path class="st2" d="M255.18,61.96l1.45-2.52l-7.45-4.3c-6.72-3.88-12.18-13.34-12.18-21.1V8.84h-2.91v25.2
							c0,8.68,6.12,19.28,13.63,23.62L255.18,61.96z"/>
					</g>
					<path class="st3" d="M218.61,128.07c0-8,3-14.33,8.24-17.35l20.8-12.01c2.93-1.69,4.61-5.72,4.61-11.06V20.59h7.27v67.06
						c0,8-3,14.33-8.24,17.35l-20.8,12.01c-2.93,1.69-4.61,5.72-4.61,11.06l0,49.42l0,23.95h-0.01c0,0.54-0.35,1.07-1.06,1.48
						c-1.42,0.82-3.71,0.82-5.13,0c-0.71-0.41-1.06-0.94-1.06-1.48h-0.01l0-24.04L218.61,128.07z"/>
					<g>
						<g>
							<path class="st2" d="M237.36,111.25c-2.13-1.23-3.79-4.11-3.79-6.57c0-1.31,0.48-2.31,1.34-2.81c0.87-0.5,1.97-0.41,3.1,0.24
								c2.13,1.23,3.79,4.11,3.79,6.57c0,1.31-0.48,2.31-1.34,2.81c-0.37,0.21-0.79,0.32-1.23,0.32
								C238.65,111.82,238.01,111.63,237.36,111.25z"/>
						</g>
						<g>
							<path class="st4" d="M234.82,117.82c-4.73-2.73-8.44-9.15-8.44-14.62c0-2.92,1.06-5.14,2.99-6.25
								c1.92-1.11,4.38-0.92,6.91,0.54c4.73,2.73,8.44,9.15,8.44,14.62c0,2.92-1.06,5.14-2.99,6.25c-0.83,0.48-1.75,0.71-2.73,0.71
								C237.69,119.07,236.27,118.65,234.82,117.82z M230.82,99.47c-0.97,0.56-1.53,1.92-1.53,3.73c0,4.37,3.2,9.91,6.99,12.1
								c1.57,0.91,3.03,1.1,4,0.54c0.97-0.56,1.53-1.92,1.53-3.73c0-4.37-3.2-9.91-6.99-12.1c-0.98-0.57-1.92-0.85-2.72-0.85
								C231.62,99.15,231.19,99.26,230.82,99.47z"/>
						</g>
					</g>
					<g>
						<path class="st5" d="M212.98,160.39v17.95c0,1.37,0.9,2.74,2.71,3.78c3.62,2.09,9.49,2.09,13.11,0
							c1.81-1.04,2.71-2.41,2.71-3.78v-17.95H212.98z"/>
						<ellipse class="st6" cx="222.25" cy="160.39" rx="9.27" ry="5.35"/>
						<ellipse class="st7" cx="222.25" cy="158.74" rx="6.98" ry="4.03"/>
					</g>
					<path class="st4" d="M258.48,19.11c1.42,0.82,1.42,2.14,0,2.96c-1.42,0.82-3.71,0.82-5.13,0c-1.42-0.82-1.42-2.14,0-2.96
						C254.76,18.29,257.06,18.29,258.48,19.11z"/>
					<ellipse class="st8" cx="235.55" cy="8.84" rx="1.45" ry="0.84"/>
					<path class="st3" d="M218.61,133.86l7.27,0.09l0,23.95h-0.01c0,0.54-0.35,1.07-1.06,1.48c-1.42,0.82-3.71,0.82-5.13,0
						c-0.71-0.41-1.06-0.94-1.06-1.48h-0.01L218.61,133.86z"/>
				</g>
				<path class="st8" d="M258.48,21.46c0.16,0.1,0.31,0.2,0.43,0.31c-0.13,0.11-0.27,0.21-0.43,0.31c-1.42,0.82-3.71,0.82-5.13,0
					c-0.16-0.1-0.31-0.2-0.43-0.31c0.13-0.11,0.27-0.21,0.43-0.31C254.76,20.64,257.06,20.64,258.48,21.46z"/>
			</g>
			<g>
				<g>
					<g>
						<g>
							<path class="st2" d="M128.88,280.31v11.72c0,0.46,0.31,0.93,0.92,1.28c1.22,0.71,3.21,0.71,4.43,0
								c0.61-0.35,0.92-0.82,0.92-1.28v-11.72L128.88,280.31z"/>
							<g>
								<path class="st3" d="M207.36,325.61v11.72c0,0.46,0.31,0.93,0.92,1.28c1.22,0.71,3.21,0.71,4.43,0
									c0.61-0.35,0.92-0.82,0.92-1.28v-11.72L207.36,325.61z"/>
								<path class="st3" d="M251.83,296.33v11.72c0,0.46,0.31,0.93,0.92,1.28c1.22,0.71,3.21,0.71,4.43,0
									c0.61-0.35,0.92-0.82,0.92-1.28v-11.72L251.83,296.33z"/>
							</g>
							<g>
								<g>
									<polygon class="st7" points="126.02,278.04 210.96,327.08 261.71,297.78 176.77,248.73 									"/>
								</g>
								<g>
									<polygon class="st3" points="129.61,280.1 129.62,196.34 180.36,225.64 180.36,250.8 									"/>
								</g>
								<path class="st3" d="M186.65,255.48c0,8.26,2.96,14.52,8.33,17.62c5.37,3.1,12.27,2.54,19.43-1.6
									c13.7-7.91,24.44-26.5,24.44-42.33h-0.04c0.03-0.51-0.27-1.03-0.95-1.42c-1.29-0.75-3.39-0.75-4.68,0
									c-0.68,0.39-0.98,0.91-0.95,1.42h-0.04c0,13.44-9.47,29.85-21.12,36.57c-5.01,2.89-9.55,3.47-12.78,1.6
									c-3.23-1.87-5.01-6.08-5.01-11.87v-45.14h-0.01c0-0.49-0.32-0.98-0.97-1.35c-1.29-0.75-3.39-0.75-4.68,0
									c-0.65,0.37-0.97,0.86-0.97,1.35h-0.01V255.48z"/>
							</g>
							<g>
								<g>
									<g>
										<polygon class="st5" points="126.02,194.26 210.96,243.3 210.96,239.37 126.02,190.33 										"/>
									</g>
									<g>
										<g>
											<polygon class="st7" points="126.02,190.33 210.96,239.37 261.71,210.07 176.77,161.03 											"/>
											<g>
												<path class="st2" d="M209.62,173.69v11.72c0,0.46,0.31,0.93,0.92,1.28c1.22,0.71,3.21,0.71,4.43,0
													c0.61-0.35,0.92-0.82,0.92-1.28v-11.72L209.62,173.69z"/>
												<ellipse class="st3" cx="212.75" cy="173.69" rx="3.14" ry="1.81"/>
												<path class="st4" d="M214.53,149.5c0-4.43-1.59-7.78-4.46-9.44c-2.88-1.66-6.58-1.36-10.41,0.86
													c-7.34,4.24-13.09,14.2-13.09,22.68h0.02c-0.02,0.27,0.14,0.55,0.51,0.76c0.69,0.4,1.82,0.4,2.51,0
													c0.36-0.21,0.52-0.49,0.51-0.76h0.02c0-7.2,5.08-15.99,11.31-19.59c2.68-1.55,5.12-1.86,6.85-0.86
													c1.73,1,2.68,3.26,2.68,6.36v24.19h0.01c0,0.26,0.17,0.52,0.52,0.72c0.69,0.4,1.82,0.4,2.51,0
													c0.35-0.2,0.52-0.46,0.52-0.72h0.01V149.5z"/>
											</g>
										</g>
										<g>
											<path class="st3" d="M187.49,179.21l42.19,24.36c4.72,2.73,4.72,7.17,0,9.89l-12.32,7.11c-4.72,2.73-12.41,2.73-17.14,0
												l-42.19-24.36c-4.72-2.73-4.72-7.17,0-9.89l12.32-7.11C175.08,176.48,182.77,176.48,187.49,179.21z"/>
											<g>
												<path class="st3" d="M229.68,199.27l-42.19-24.36c-4.72-2.73-12.41-2.73-17.14,0l-12.32,7.11
													c-3.33,1.92-4.3,4.69-2.94,7.11c0.56-1.03,1.53-2,2.94-2.81l12.32-7.11c4.72-2.73,12.41-2.73,17.14,0l42.19,24.36
													c1.4,0.81,2.38,1.77,2.95,2.8C233.98,203.94,233,201.18,229.68,199.27z"/>
												<g>
													<path class="st9" d="M238.23,204.13l0-0.12l-0.01,0.01C238.22,204.06,238.23,204.1,238.23,204.13z"/>
													<path class="st10" d="M238.17,204.13c0-0.02,0-0.03,0-0.05c0-0.02,0-0.04,0-0.05l0-0.03l0.12-0.12l0.01,0.26
														L238.17,204.13z"/>
												</g>
												<path class="st3" d="M238.24,208.51l-0.01-4.22c-0.03,2.51-1.7,5.01-5,6.92l-12.32,7.11c-6.68,3.86-17.55,3.86-24.23,0
													l-42.19-24.36c-3.33-1.92-5-4.45-5.01-6.98l0,0v4.28c0,0,0,0,0,0.01v0.01l0,0c0,2.53,1.67,5.06,5.01,6.98l42.19,24.36
													c6.68,3.86,17.55,3.86,24.23,0l12.32-7.11c3.31-1.91,4.98-4.42,5-6.93l0.01,0L238.24,208.51L238.24,208.51z"/>
											</g>
											<path class="st4" d="M166.81,172.86l-12.32,7.11c-6.68,3.86-6.68,10.13,0,13.99l42.19,24.36
												c6.68,3.86,17.55,3.86,24.23,0l12.32-7.11c6.68-3.86,6.68-10.13,0-13.99l-42.19-24.36
												C184.36,169,173.49,169,166.81,172.86z M170.36,174.91c4.72-2.73,12.41-2.73,17.14,0l42.19,24.36
												c4.72,2.73,4.72,7.17,0,9.89l-12.32,7.11c-4.72,2.73-12.41,2.73-17.14,0l-42.19-24.36c-4.72-2.73-4.72-7.17,0-9.89
												L170.36,174.91z"/>
											<g>
												<path class="st2" d="M232.63,206.36c-0.57-1.02-1.55-1.99-2.95-2.8l-42.19-24.36c-4.72-2.73-12.41-2.73-17.14,0
													l-12.32,7.11c-1.4,0.81-2.38,1.77-2.95,2.8c0.57,1.02,1.55,1.99,2.95,2.8l5.94,3.43l6.38-3.68
													c4.72-2.73,12.41-2.73,17.14,0l36.25,20.93l5.94-3.43C231.09,208.35,232.06,207.38,232.63,206.36z"/>
											</g>
										</g>
									</g>
									<polygon class="st6" points="210.96,239.37 210.96,243.3 261.71,214 261.71,210.07 									"/>
								</g>
								<g>
									<g>
										<polygon class="st5" points="126.02,281.97 210.96,331.01 210.96,327.08 126.02,278.04 										"/>
									</g>
									<polygon class="st6" points="210.96,327.08 210.96,331.01 261.71,301.71 261.71,297.78 									"/>
								</g>
								<g>
									<polygon class="st2" points="126.02,278.04 129.62,280.12 129.62,196.34 126.02,194.26 									"/>
								</g>
								<g>
									<polygon class="st2" points="207.36,325 210.97,327.08 210.97,243.3 207.36,241.22 									"/>
									<g>
										<polygon class="st3" points="210.96,327.07 210.97,243.3 261.71,214 261.71,297.76 										"/>
									</g>
								</g>
							</g>
						</g>
					</g>
					<g>
						<g>
							<g>
								<path class="st11" d="M101.95,348.94c0,0,10.24-5.43,19.99-9.13s33.93-13.08,42.32-12.34c8.39,0.74,10.24,1.97,10.24,1.97
									s1.52,9.91-11.06,16.41c-12.58,6.5-58.23,28.21-61.93,28.54c-3.7,0.33-4.93-1.48-4.93-1.48L101.95,348.94z"/>
								<path class="st12" d="M56.88,332.29c0,0,4.07,1.44,11.19-1.85s14.48-6.05,14.48-6.05l-12.5-17.97c0,0-7.11,4.11-12,3.05
									L56.88,332.29z"/>
								<path class="st12" d="M108.8,285.41c0.74,0.19,19.43,1.91,25.42,6.29c5.98,4.38,6.91,20.05,6.91,20.05l-33.25-10.49
									l-1.6-13.82L108.8,285.41z"/>
								<path class="st6" d="M50.51,307.92c0,0,8.82,1.48,11.29,2.78c2.47,1.3,5.18,10.49,2.04,15.85
									c-3.15,5.37-12.09,7.53-13.76,9.19c-1.67,1.67-9.69,11.47-15.36,12.28c-5.68,0.8-10.18-7.83-9.75-11.29
									c0.43-3.45,6.05-12.95,12.15-16.9C43.23,315.88,45.63,308.04,50.51,307.92z"/>
								<path class="st11" d="M110.32,296.05c0,0,2.74,6.26,11.99,8.48c9.25,2.22,47.99,8.88,52.19,24.92c0,0-20.48,5.31-29.73,6.91
									c-9.25,1.6-47.01,4.07-61.56-5.68c-14.56-9.75-18.67-19.11-18.71-38.24L110.32,296.05z"/>
								<path class="st13" d="M184.99,275.12c0,0-0.74-3.16-0.37-5.36c0.37-2.21,6.2-6.28,7.2-6.89c1.18-0.73,3.95-0.08,4.32,0.49
									c0.37,0.58,0.53,2.02-1.07,2.34c-1.6,0.33-2.51,1.6-2.1,2.51c0.41,0.9,4.28-0.83,4.41-1.82c0.12-0.99-1-1.96-1-1.96
									s0.1-1.16-0.66-1.38c-0.5-0.14,1.28-1.48,2.72-0.21c1.44,1.27,4.38,4.13,4.75,6.75c0.37,2.62-2.59,7.83-3.76,9.87
									c-1.17,2.04-8.6,3.07-8.6,3.07L184.99,275.12z"/>
								<path class="st13" d="M156.3,169.37c0,0,5.98-5.7,8.82-7.92c2.84-2.22,13.12-0.9,16.37-0.7c3.25,0.21,4.13,4.31,4.52,5.31
									c0.39,1,0.23,1.58-0.33,2.18c0,0,0.58,3.41-0.39,3.69c-0.98,0.28-1.63-0.16-2.35-0.56c-0.72-0.39-3.6-2.97-5.23-3.69
									c-1.63-0.72-4.27,2.51-4.3,3.86c-0.02,1.35,6.14-0.88,7.04-1.11c0.9-0.24,1.7-0.23,2.23,0.37c0.53,0.6-0.86,2.07-2.09,3.44
									c-1.23,1.37-2.65,1.86-5.78,2.32c-3.14,0.46-11.55,1.52-14.67-0.78L156.3,169.37z"/>
								<path class="st14" d="M85.01,216.35c0,0,10.03-10.53,16.57-15.71c6.54-5.18,28.87-21.1,28.87-21.1s20.73-9.13,25.85-10.18
									c0,0,2.34,0.99,3.95,6.35c0,0-21.25,12.09-24.91,15.67c-3.65,3.58-37.09,30.29-37.09,30.29L85.01,216.35z"/>
								<path class="st15" d="M123.39,223.64c0,0-3.05-0.66-5.21,2.3c-2.16,2.96-4.11,7.53-4.11,7.53s-12.3-13.23-16.98-14.82
									c0,0,7.88-4.67,10.35-6.33L123.39,223.64z"/>
								<path class="st14" d="M97.08,218.65c0,0,10.75,4.33,18.9,13.71c8.14,9.38,19.36,20.85,19.36,20.85s-14.43,16.99-19.45,24.14
									c-5.02,7.16-8.47,11.02-6.25,16.04s0.21,18.01-12.56,18.84c-12.77,0.82-29.14-4.28-31.85-15.22
									c-2.71-10.94,1.23-27.88,2.06-32.41s-0.29-33.38,18.95-49.51C86.24,215.08,95.87,218.18,97.08,218.65z"/>
								<path class="st13" d="M138.84,190.65c0,0,0.33,12.09-0.49,13.98c-0.82,1.89-2.8,2.8-2.63,7.16
									c0.16,4.36-3.87,9.38-5.68,11.76c-1.81,2.39-13.65-0.66-16.37-7.81C110.96,208.58,138.84,190.65,138.84,190.65z"/>
								<path class="st16" d="M108.57,216.97c7.05,2.46,11.8,0.64,11.8,0.64l1.72-1.01c0,0,1.83-1.65,3.37-3.87
									s13.45-18.01,13.45-18.01s3.39-6.85,0.55-11.97c-2.84-5.12-20.42-18.26-35.35-6.85
									C89.18,187.32,101.52,214.52,108.57,216.97z"/>
								<path class="st17" d="M145.59,301.77c0,0,6.91-0.49,18.34-6.25c11.43-5.76,26.9-13,26.9-13s0.49-6.42-5.84-7.4
									c0,0-7.24,3.45-12.5,4.28c-5.26,0.82-13.41,2.63-19.9,5.43L145.59,301.77z"/>
								<path class="st6" d="M86.94,345.78c0,0,13.16,2.06,17.19,3.95c4.03,1.89,1.34,16.71-2.14,20.56
									c-3.48,3.85-9.91,10.03-13.98,14.48c-3.41,3.72-8.14,8.14-12.58,7.07c-4.44-1.07-9.79-7.9-8.31-12.42
									c1.48-4.52,8.64-13.24,11.68-19.16S82.34,346.02,86.94,345.78z"/>
								<path class="st13" d="M123.39,212.4c0,0,0.04-2-2.6-2.21c-2.33-0.18-4.19,5.63-1.93,7.9
									C121.12,220.35,123.79,215.89,123.39,212.4z"/>
								<path class="st17" d="M127.82,250.04c0,0,7.81,0.49,11.43,8.23c3.62,7.73,13.32,26.57,13.32,26.57s-1.4,10.45-6.99,16.94
									c0,0-8.39,0.49-15.3-11.19c-6.91-11.68-13.41-16.45-13.65-23.03C116.39,260.98,117.87,251.19,127.82,250.04z"/>
							</g>
							<path class="st12" d="M97.08,312.22c12.77-0.82,14.78-13.82,12.56-18.84c-2.03-4.59,0.69-8.23,5.01-14.29
								c-8.21-4.82-10.78-16.8-5.14-27.37c4.02-7.54,14.9-10.02,14.9-10.02l-0.03-0.04c-2.13-2.29-4.34-4.72-6.44-7.09l-0.09-0.1
								c0,0-4.33,1.37-9.37,0.78c-5.04-0.59-17.36-10.98-17.36-13.58c0-2.6,2.47-4.21,2.47-4.21c-2.28-0.75-5.03-1.64-6.44-2.09
								l-0.01,0c-3.05,1.73-7.11,6.27-7.7,6.94C67.27,238.65,68,260.69,67.29,264.6c-0.82,4.52-4.77,21.47-2.06,32.41
								C67.94,307.94,84.31,313.04,97.08,312.22z"/>
							<path class="st18" d="M134.6,310.91c0,0,1.95,11.35-1.72,20.69l20.58,1.67l8.23-2c0,0,1.56-6.9-2-13.57
								C159.69,317.7,149.55,313.14,134.6,310.91z"/>
							<path class="st19" d="M134.6,310.91c0,0,4.51,0.17,8.74,0.83c0,0,2.5,10.12,0,19.3l-10.46,0.56
								C132.88,331.61,135.48,320.81,134.6,310.91z"/>
						</g>
						<path class="st19" d="M110.02,294.48c-1.15,5.12-4.93,10.43-12.94,10.95c-12.77,0.82-29.14-4.28-31.85-15.22
							c-0.45-1.8-0.7-3.76-0.83-5.8c-0.24,4.41-0.1,8.85,0.83,12.59c2.71,10.94,19.08,16.04,31.85,15.22
							C109,311.45,111.55,300.07,110.02,294.48z"/>
					</g>
				</g>
			</g>
			<path class="st19" d="M37.12,319.83c-6.11,3.95-11.72,13.45-12.15,16.9c-0.35,2.79,2.53,8.97,6.64,10.81
				c6.34,2.61,19.42-15.74,23.71-27.15c3.81-10.12-2.91-12.1-4.49-12.41c-0.2-0.03-0.32-0.06-0.32-0.06
				C45.63,308.04,43.23,315.88,37.12,319.83z"/>
			<path class="st19" d="M78.8,360.25c-3.04,5.92-10.2,14.64-11.68,19.16c-1.41,4.29,3.34,10.65,7.62,12.2
				c6.94,1.31,10.48-8.04,12.62-13.61c2.13-5.56,5.63-14.2,5.77-22.98c0.12-7.46-4.41-8.92-5.79-9.19c-0.26-0.04-0.4-0.06-0.4-0.06
				C82.34,346.02,81.84,354.33,78.8,360.25z"/>
		</g>
		<path class="st20" d="M139.46,182.76c-1.15-2.08-4.74-5.48-9.59-8.03c1.81,1.05,5.79,4.24,3.66,11.38
			c-2.71,9.08-15.59,11.42-19.47,16.39c-3.88,4.97-11.19,6.67-15.47-0.9c2.29,7.75,6.7,14.23,9.98,15.37
			c4.64,1.62,8.28,1.38,10.22,1.03c-2.15-2.31-0.3-8,2-7.82c2.64,0.21,2.6,2.21,2.6,2.21c0.13,1.1-0.05,2.29-0.43,3.35
			c0.67-0.69,1.63-1.75,2.5-3.01c1.54-2.22,13.45-18.01,13.45-18.01S142.3,187.88,139.46,182.76z"/>
	</g>
</g>
<g id="Layer_2">
	<g>
		<g>
			<g>
				<g>
					<path class="st12" d="M281.11,190.17c0,0-2.04-11.56-3.59-19.93l-7.47,11.38L281.11,190.17z"/>
					<path class="st21" d="M205.61,245.31c0,0-26.13,12.31-35.54,20.56c-9.41,8.25-19.65,13.62-22.77,13.01l7.55-16.76l50.76-30.4
						V245.31z"/>
					<path class="st11" d="M169.37,205.7c0,0-35.54,32.99-40.19,47.16c-4.65,14.17,12.08,26.25,18.12,26.02
						c0,0,9.99-8.13,22.07-19.51c12.08-11.38,37.87-26.48,37.87-26.48l3.55-36.39L169.37,205.7z"/>
					<path class="st6" d="M277.86,203.49c0,0,3.68,2.9,3.64,6.16c-0.04,3.25-4.34,11.5-6.43,19.05
						c-2.09,7.55-9.76,28.23-26.48,26.13c-16.73-2.09-7.9-17.15-7.9-17.15s5.46-7.01,4.76-17.23L277.86,203.49z"/>
					<path class="st6" d="M232.72,314.4c0,0,5,5.77,3.26,12.74c-1.74,6.97-5.31,14.11-9.5,23.7c-4.18,9.58-4.18,9.58-4.18,9.58
						s-10.19,20.3-31.27,9.23c-21.08-11.06,5.58-29.44,8.1-33.19c2.53-3.75,5.4-10.28,5.4-10.28L232.72,314.4z"/>
					<path class="st14" d="M134.29,130.55c0,0-12.66,19.75-22.19,28.81c-9.52,9.06-11.86,15.63-11.86,15.63s-6.72-2.16-12.53-5.18
						c0,0,8.48-25.79,11.96-36.24c3.48-10.45,12.66-18.7,16.15-21.49L134.29,130.55z"/>
					<path class="st14" d="M177.07,76.42c0,0-50.91,29.39-61.24,35.66c0,0,2.67,15.33,18.47,18.47c0,0,42.51-15.1,53.2-20.79
						C198.18,104.07,177.07,76.42,177.07,76.42z"/>
					<path class="st14" d="M217.69,65.39c0,0,7.84,3.45,16.55,7.07c8.71,3.62,32.58,13.72,32.06,28.53
						c-0.52,14.81,3.48,43.56,5.58,52.44c2.09,8.89,11.85,20.91,0,27.35c-11.85,6.45-44.25,1.22-51.4-4.53
						c-7.14-5.75-15.33-29.97-24.57-38.68c-9.23-8.71-20.88-43.21-18.54-58.19L217.69,65.39z"/>
					<path class="st12" d="M177.18,81.01l5.28,2.78l11.37,3.22c0,0-2.73,32.67,9.68,33.53c5.01,0.35,18.43,2.71,18.48-3.22
						c0.16-18.67,8.37-33.94,10.03-38.03c2.55-6.28-1.57-8.4-2.3-8.72c1.45,0.61,2.97,1.25,4.51,1.89
						c3.89,1.62,10.81,4.54,17.23,8.59c-2.86,0.27-7.76,2.97-13.87,14.46c-6.11,11.51-1.33,19.31-1.33,19.31l30.17-4.37
						c0.76,15.33,3.74,35.73,5.44,42.97c2.09,8.89,11.85,20.91,0,27.35c-11.85,6.45-44.25,1.22-51.4-4.53
						c-7.14-5.75-15.33-29.97-24.57-38.68C187,129.17,175.84,96.72,177.18,81.01z"/>
					<path class="st19" d="M220.48,176.26c-2.7-2.17-5.54-6.97-8.53-12.57c9.46,9.17,26.89,13.96,44.22,12.04
						c17.36-1.92,18.79-13.83,18.8-13.87c2.87,7.04,5.28,14.37-3.09,18.92C260.03,187.23,227.62,182,220.48,176.26z"/>
					<path class="st15" d="M213.1,59c0,0,1.57,3.45,4.59,6.39c2.84,2.77,7.18,4.93,6.19,8.25c-2.33,7.74-8.8,23.46-16.7,24.04
						c-7.9,0.58-8.6-11.62-8.71-12.37C198.35,84.55,213.1,59,213.1,59z"/>
					<path class="st17" d="M212.39,168.24c0,0-16.18,5.4-35.32,17.07s-29.77,19.34-29.77,19.34l12.47,7.45
						c0,0,37.02-6.4,46.95-10.59c9.93-4.18,21.6-12.36,24.39-17.76L212.39,168.24z"/>
					<path class="st15" d="M100.25,174.99c0,0,5.42,8.5,7.25,12.33c1.83,3.83-2.63,16.55-3.62,20.91c-0.99,4.36-5.96,1.92-5.26-2.7
						c0.7-4.62,3.05-8.36,1.39-10.37c-1.66-2-4.79,4.53-6.1,6.71c-1.31,2.18,0.17,9.23,5.23,10.72c5.05,1.48,1.48,4.36-2,4.62
						c0,0-2,3.4-6.62,1.48c-4.62-1.92-7.58-5.05-9.5-8.19c-1.92-3.14-2.53-14.29-2.53-16.38c0-2.09,9.23-24.3,9.23-24.3
						S94.39,169.1,100.25,174.99z"/>
					<path class="st12" d="M241.46,223.82c0,0,2.19,12.54-1.47,31.71c-3.66,19.17-7.67,63.07-7.67,63.07s-15.33,22.3-31.88,8.54
						c0,0-4.01-6.97-2.44-18.12c1.57-11.15,5.46-44.78,5.52-57.15c0.06-12.37-0.58-38.97,0-43.62L241.46,223.82z"/>
					<path class="st13" d="M163.51,60.22c0,0,4.36,12.63,6.1,13.94c1.74,1.31,7.06,5.84,8.28,9.93c1.22,4.09,1.31,4.88,5.05,4.27
						c3.75-0.61,5.31,7.49,10.45,7.14c5.14-0.35,13.59-14.37,15.07-18.56c1.48-4.18-0.78-18.73-0.78-18.73l-21.44-7.89L163.51,60.22
						z"/>
					<path class="st17" d="M254.75,88.27c4.5-0.96,9.03,1.11,11.45,5.02c2.95,4.76,6.05,12.98,3.24,24.43
						c-4.7,19.17-38.33,66.04-38.33,66.04s-12.87-6.63-18.72-15.51c0,0,12.97-30.02,19.94-43.67
						C238.33,112.82,241.1,91.18,254.75,88.27z"/>
					<path class="st12" d="M281.11,190.17c0,0-11.15-17.92-28.57-16.3c-17.42,1.63-46,20.68-49.02,34.38c0,0,4.34,18.82,37.94,15.56
						c0,0,8.53-3.38,15.02-4.55C263.35,218.02,284.61,207.63,281.11,190.17z"/>
				</g>
				<path class="st18" d="M253.59,187.96c0,0,10.3,12.77,6.97,29.07c0,0-4.83,1.18-6.97,0.75c-2.15-0.43-11.08,3.33-11.08,3.33
					s-8.87-4.08-14.45-14.8C228.06,206.3,239,193.43,253.59,187.96z"/>
				<path class="st19" d="M260.57,217.03c0,0-3.45,1.77-7.51,1.72c0,0-3.97-16.74-9.12-22.26l9.66-8.53
					C253.59,187.96,265.61,201.48,260.57,217.03z"/>
				<path class="st6" d="M196.2,125.09c7.66,0.33,27.38,0.15,35.84,0.05c-1.65,3.27-3.62,7.38-5.65,11.76l-25.04-1.01
					C195.45,127.49,196.2,125.09,196.2,125.09z"/>
			</g>
			<g>
				<path class="st22" d="M36.92,248.9l132.94,19.26v52.79l0,0c0,0.84-0.56,1.69-1.67,2.33l-42.65,24.62
					c-2.23,1.29-5.85,1.29-8.08,0l-78.87-45.53c-1.11-0.64-1.67-1.49-1.67-2.33l0,0V248.9z"/>
				<path class="st5" d="M29.69,247.73l0-12.81l14.21,2.01l32.23-18.61c5.06-2.92,13.25-2.92,18.31,0l59.01,34.07l23.65,3.34v13.41
					c0,1.91-1.26,3.83-3.79,5.29l-42.65,24.62c-5.06,2.92-13.25,2.92-18.31,0l-78.87-45.53c-2.74-1.58-3.99-3.7-3.75-5.78
					L29.69,247.73z"/>
				<g>
					<path class="st7" d="M94.44,204.91l78.87,45.53c5.06,2.92,5.06,7.65,0,10.57l-42.65,24.62c-5.06,2.92-13.25,2.92-18.31,0
						L33.48,240.1c-5.06-2.92-5.06-7.65,0-10.57l42.65-24.62C81.18,201.99,89.38,201.99,94.44,204.91z"/>
					<path class="st22" d="M38.59,237.15c-2.23-1.29-2.23-3.38,0-4.67l42.65-24.62c2.23-1.29,5.85-1.29,8.08,0l78.87,45.53
						c2.23,1.29,2.23,3.38,0,4.67l-42.65,24.62c-2.23,1.29-5.85,1.29-8.08,0L38.59,237.15z"/>
					<path class="st6" d="M168.19,258.06l-7.47,4.31l-71.4-41.22c-2.23-1.29-5.85-1.29-8.08,0l-35.18,20.31l-7.47-4.31
						c-2.23-1.29-2.23-3.38,0-4.67l42.65-24.62c2.23-1.29,5.85-1.29,8.08,0l78.87,45.53C170.42,254.68,170.42,256.77,168.19,258.06z
						"/>
				</g>
				<path class="st23" d="M112.34,299.05c3.05,1.76,7.25,2.44,11.21,2.08v47.52c-2.04,0.45-4.45,0.21-6.09-0.74l-78.87-45.53
					c-1.11-0.64-1.67-1.49-1.67-2.33V255.5L112.34,299.05z"/>
				<path class="st6" d="M119.53,301.13c-2.63-0.23-5.16-0.91-7.18-2.08l-78.87-45.53c-2.74-1.58-3.99-3.7-3.75-5.78l-0.04-0.01
					l0-12.81l0.01,0c0.05,1.88,1.3,3.75,3.78,5.18l78.87,45.53c2.02,1.17,4.55,1.85,7.18,2.08V301.13z"/>
			</g>
			<path class="st15" d="M159.77,212.1c0,0,0.43,6.49-6.66,10.67c-7.09,4.18-19.05,9.41-19.63,12.31c-0.58,2.9-4.76,5.46-9.41,6.04
				c-4.65,0.58-4.65-5.34-3.37-11.62c1.28-6.27,2.44-11.62,5.69-14.17c3.25-2.56,20.91-10.69,20.91-10.69
				S156.55,205.73,159.77,212.1z"/>
			<g>
				<path class="st4" d="M21.79,173.07l6.96-4.03l0.01,0.01c1.67-1.16,4.08-1.12,6.77,0.43l78.87,45.53
					c5.06,2.92,9.16,10.02,9.16,15.86l0,49.25c0,3.2-1.24,5.35-3.18,6.16l0,0l-6.39,3.73l-7.01-8.9l-71.45-41.25
					c-5.06-2.92-9.16-10.02-9.16-15.86l0-45.14L21.79,173.07z"/>
				<path class="st3" d="M28.66,173.45l78.87,45.53c5.06,2.92,9.16,10.02,9.16,15.86l0,49.25c0,5.84-4.1,8.21-9.16,5.29
					l-78.87-45.53c-5.06-2.92-9.16-10.02-9.16-15.86l0-49.25C19.5,172.9,23.6,170.53,28.66,173.45z"/>
			</g>
		</g>
		<g>
			<path class="st16" d="M172.4,62.77c0,0-3.3,1.59-7.4,1.52c-4.1-0.07-11.11-9.18-10.16-19.19c0.94-10,14.48-27.68,33.29-26.99
				c17.9,0.66,28.86,17.64,28.95,33.5c0.09,15.86-8.3,14.08-9.47,16.91c-1.17,2.83-0.56,4.47-2.16,4.92
				c-1.59,0.45-6.37-7.5-13.45-8.92C184.93,63.09,196.84,50.23,172.4,62.77z"/>
		</g>
		<path class="st13" d="M206.12,60.16c3.62-1.65,6.36-0.55,5.16,3.83c-1.21,4.38-1.86,7.34-3.43,7.36
			C204.77,71.38,202.5,61.81,206.12,60.16z"/>
		<path class="st20" d="M212.4,33.89c4.62,14.35-15.64,20.55-23.36,20.65c-7.72,0.11-14.33,7.06-14.33,7.06v0
			c21.35-10.53,10.45,1.53,17.29,2.91c7.07,1.43,11.85,9.37,13.45,8.92c1.04-0.29,1.15-1.11,1.42-2.43
			c-2.52-1.67-3.96-9.39-0.75-10.85c3.62-1.65,6.36-0.55,5.16,3.83c-0.24,0.86-0.45,1.65-0.66,2.39c2.82-1.49,6.51-4.22,6.45-14.77
			C217.04,45.54,215.4,39.31,212.4,33.89z"/>
	</g>
</g>
</svg>
