<?xml version="1.0" encoding="utf-8"?>
<!-- Generator: Adobe Illustrator 25.2.3, SVG Export Plug-In . SVG Version: 6.00 Build 0)  -->
<svg version="1.1" id="Ñëîé_1" xmlns="http://www.w3.org/2000/svg" xmlns:xlink="http://www.w3.org/1999/xlink" x="0px" y="0px"
	 viewBox="0 0 2000 2000" style="enable-background:new 0 0 2000 2000;" xml:space="preserve">
<style type="text/css">
	.st0{fill:#41907D;}
	.st1{fill:#DA627D;}
	.st2{fill:#FFFFFF;}
	.st3{fill:#136D55;}
	.st4{fill:#76E5C6;}
	.st5{fill:#76D6BD;}
	.st6{fill:#4DD6AF;}
	.st7{fill:#79E8C8;}
	.st8{fill:#EAA288;}
	.st9{fill:#3E1A4A;}
	.st10{fill:none;}
</style>
<ellipse class="st0" cx="935.06" cy="1696.4" rx="331.98" ry="32.17"/>
<path class="st1" d="M933.43,1476.74c53.25-15.33,81.64-27.28,194.46-31.66c61.89-2.41,312.35,92.46,489.98-169.26
	c18.65-27.48,33.78-58.42,43.87-88.51c162.49-485.02-203.2-946.22-892.19-784.03c-136.17,32.05-481.65,190.03-469.21,621.25
	C308.91,1322.1,576.13,1579.58,933.43,1476.74z"/>
<g>
	<rect x="842.48" y="862.77" class="st2" width="251.29" height="474.76"/>
	<rect x="842.48" y="368.07" class="st2" width="251.29" height="474.76"/>
	<rect x="571.24" y="862.77" class="st2" width="251.29" height="474.76"/>
	<rect x="571.24" y="368.07" class="st2" width="251.29" height="474.76"/>
	<rect x="300" y="862.77" class="st2" width="251.29" height="474.76"/>
	<rect x="300" y="368.07" class="st2" width="251.29" height="474.76"/>
</g>
<g>
	<path class="st3" d="M1086.79,785.81c4.62-35.42,14.94-131.63,36.38-201.84c21.44-70.22,53.25-148.68,101.87-216.48
		c23.78-33.16,45.81-58.01,69.3-78.98c1.13,34.28,14.95,49.96,14.95,49.96s12.41,21.58,7.73,10.42
		c-4.69-11.16-10.29-26.26-9.71-54.96c0.12-5.95,1-12.2,2.33-18.4c20.14-16.2,41.75-30.38,66.66-45.05
		c61.34-36.14,65.33-14.75,65.33-14.75s11.34,8.78-8.29,19.42c-19.63,10.64-24.29,23.09-70.7,82.65
		c-46.41,59.56-81.04,179.55-103.91,248.51s-81.51,217.1-81.51,217.1s-19.68,68.15-65.56,56.33
		C1082.66,832.24,1082.17,821.22,1086.79,785.81z"/>
	<path class="st4" d="M1388.48,257.55c-20.24,20.83-38.71,43.33-55.97,66.68c-17.2,23.4-33.38,47.57-48.3,72.51
		c-14.93,24.92-29.1,50.31-42.32,76.19c-13.13,25.92-25.76,52.11-37.43,78.73c-11.66,26.62-22.89,53.44-33.18,80.62
		c-2.65,6.77-5.22,13.56-7.68,20.4l-7.48,20.48c-4.74,13.74-9.67,27.42-14.12,41.26c-18.31,55.19-33.99,111.26-46.97,167.97
		c-12.84,56.74-23.08,114.16-28.74,172.19c-2.92,29.01-4.31,58.18-5.21,87.21c-0.98,29.06-1.66,58.1-2.23,87.14
		c-2.18,116.17-3.03,232.31-3.46,348.49l13.6-0.03c-0.7-116.09-0.98-232.23,0.06-348.3c0.29-29.02,0.68-58.03,1.38-87.02
		c0.62-29.02,1.71-57.9,4.33-86.69c5.05-57.63,14.68-114.87,26.92-171.5c12.39-56.61,27.46-112.66,45.19-167.88
		c4.3-13.85,9.08-27.54,13.68-41.29l7.27-20.5c2.39-6.85,4.89-13.65,7.47-20.43c10-27.22,20.95-54.09,32.33-80.77
		c11.38-26.68,23.73-52.94,36.58-78.94c12.94-25.96,26.84-51.44,41.51-76.47c14.66-25.04,30.58-49.33,47.53-72.88
		C1350.21,301.24,1368.44,278.57,1388.48,257.55z"/>
	<path class="st3" d="M663.77,427.08c8.6,6.65,43.4,23.15,93.73,30.11c42.67,5.9,86.3-1.77,128.35,23.84
		c-2.74,11.22-6.73,23.19-12.46,32.84c-14.66,24.68-27.38,34.56-37.25,41.57c-9.87,7.01,12.06-4.77,12.06-4.77
		s18.28-5.17,38.88-42.36c4.13-7.46,6.75-14.43,8.33-20.83c4.34,3.21,8.65,6.79,12.95,10.85c48.85,46.12,81.91,75.21,74.8,129.33
		c-7.11,54.13,18.37,66.43-4.68,107.3c-23.05,40.87-90.67,30.71-115.78-15.72c-16.51-30.53-27.42-107.45-68.1-139.2
		c-78.17-61.01-114.88-48.19-134.84-113.89C648.71,429.76,655.16,420.43,663.77,427.08z"/>
	<path class="st0" d="M1115.29,851.11c-5.05-64.36,17.7-97.29,68.2-149.68c30.25-31.38,62.76-39.26,94.82-41.82
		c-18.61,36.49-9.24,61.34-9.24,61.34s2.08,24.81,2.57,12.72c0.5-12.09,1.84-28.14,14.54-53.89c3.64-7.38,8.83-14.65,14.46-21.33
		c13.82-0.47,27.45-0.73,40.64-2.29c50.51-5.99,85.86-20.59,94.7-28.07c8.84-7.48,13.77,3.5,2.53,46.4
		c-28.37,108.26-102.86,113.61-147.05,145.04c-44.19,31.43-44.72,101.79-62.35,137.18c-26.82,53.82-91.75,60.89-113.21,11.49
		C1094.45,918.81,1120.34,915.47,1115.29,851.11z"/>
	<path class="st0" d="M1127.56,1121.8c21.8-47.23,46.4-89.7,121.11-134.43c30.79-18.43,58.18-26.49,82.99-30.89
		c-19.35,31.83-15.87,48.45-15.87,48.45s-0.24,24.89,1.38,12.9c1.62-11.99,4.45-27.85,19.5-52.3c2.34-3.8,5.13-7.53,8.19-11.13
		c35.98-4.97,66.4-4.41,93.95-21.24c14.2-8.68,25.91-15.67,18.82-2.76c-77.06,140.25-150.74,105.02-261.06,226.21
		c-9.48,10.42-17.71,17.68-24.43,22.71c-12.17,9.12-40.8,7.7-47.07-6.15C1119.66,1161.28,1117.26,1144.11,1127.56,1121.8z"/>
	<path class="st0" d="M966.48,688.23c-9.87-55.7,0.91-150.91,6.06-210.73c4.2-48.83,20.1-75.23,35.02-104.36
		c12.49,5.05,20.96,4.78,20.96,4.78s24.15,6.05,12.86,1.67c-7.8-3.03-17.27-7.06-29.06-15.98c1.72-3.53,3.4-7.14,5.03-10.86
		c16.96-38.76,23.01-62.98,33.91-79.93c0,0,23.01-38.75,35.12-39.97c12.11-1.21,9.69,9.69,18.17,4.84
		c8.48-4.84,29.07,6.06,35.12,23.01c3.74,10.48,6.1,26.07,7.35,46.17c-2.84,4.49-5.96,8.73-9.34,12.41
		c-18.14,19.79-31.67,26.39-42.04,30.91c-10.37,4.52,11.95-2.06,11.95-2.06s16.11-1.14,40.1-27.3c0.31,8.75,0.46,18.18,0.46,28.28
		c0,41.18,14.13,80.26,19.67,136.85c3.85,39.24-15.45,105.54-19.7,132.01c-11.79,73.51,21.25,131.68-22.42,225.26
		c-26.29,56.34-75.66,12.71-75.66,12.71s-9.69,10.31-30.28,5.46c-20.59-4.84-30.28-38.76-37.54-70.24
		C974.96,759.68,970.29,709.73,966.48,688.23z"/>
	<path class="st0" d="M862.68,752.84c-21.75-38.4-45.61-74.63-93.94-115.63c-48.33-41-77.48-71.43-116.22-87.19
		c-37.34-15.18-65.7-28.23-102.52-33.9c-35.85-5.52-57.41-3.47-62.32-10.82c-3.52-5.28,1.7-7.66,25.17-6.46
		c35.93,1.83,43.97-7.59,92.32-1.78c48.35,5.81,79.07-3.65,112.25,15.88c33.18,19.53,80.59,32.36,113.61,58.93
		c33.02,26.57,60.12,44.83,71.27,63.42c22.11,36.85,39.54,60.8,47.21,89.46c16.11,60.15,7.56,62.8,9.42,83.96
		c1.86,21.16-13.36,32.53-24.53,36.1C899.77,855.87,892.74,805.91,862.68,752.84z"/>
	<path class="st5" d="M1100.68,269.41c-3.56,13.6-6.06,27.44-8.59,41.26c-2.49,13.83-4.76,27.7-6.89,41.59
		c-4.25,27.78-7.96,55.65-11.28,83.57c-3.27,27.92-6.1,55.89-8.63,83.89c-2.4,28.01-4.59,56.04-6.27,84.11
		c-3.5,56.12-6.03,112.28-8.18,168.46c-2.13,56.18-3.85,112.37-5.17,168.57c-1.24,56.21-2.37,112.41-2.17,168.71
		c-0.01,14.05,0.4,28.25,0.72,42.22l0.79,42.11l1.2,84.28l3.54,337.18l13.6-0.19l-6.94-337.17l-2.05-84.3l-1.22-42.17
		c-0.47-14.12-1.01-28.01-1.15-42.06c-0.76-56.1-0.2-112.32,0.47-168.49c0.75-56.18,1.9-112.36,3.47-168.53
		c1.59-56.17,3.55-112.33,6.48-168.43c1.4-28.06,3.31-56.08,5.42-84.09c2.25-28,4.79-55.98,7.78-83.91
		c3.04-27.93,6.46-55.82,10.43-83.63c1.99-13.91,4.12-27.79,6.47-41.64C1094.9,296.91,1097.26,283.04,1100.68,269.41z"/>
	<path class="st4" d="M1427.83,660.7c-0.49,1.48-1.83,2.38-2.96,3.33c-1.24,0.86-2.52,1.66-3.84,2.4c-2.64,1.46-5.34,2.82-8.07,4.11
		l-16.44,7.62c-10.97,5.06-21.86,10.34-32.5,16.09c-21.27,11.48-41.67,24.81-59.95,40.76c-9.14,7.96-17.77,16.53-25.68,25.73
		c-3.97,4.59-7.73,9.32-11.6,13.97l-11.26,14.24c-14.77,19.18-28.55,39.15-41.06,59.91c-25.1,41.48-44.78,86.23-59.15,132.55
		c-13.51,46.5-27.9,92.53-41.52,138.98c-13.62,46.42-26.35,93.16-36.66,140.55c-5.09,23.71-9.45,47.61-12.82,71.7
		c-3.2,24.1-4.73,48.63-5.35,72.76c-1.4,48.41-1.67,96.8-1.53,145.17c0.16,48.38,0.74,96.72,1.73,145.12l13.59-0.39
		c-1.56-48.24-2.7-96.55-3.43-144.84c-0.71-48.29-1.01-96.58-0.17-144.81c0.34-24.19,1.55-47.96,4.43-71.83
		c3.05-23.82,7.08-47.54,11.86-71.15c9.69-47.19,21.82-93.93,34.87-140.42c13.04-46.46,26.95-92.87,39.86-139.36
		c13.73-46.15,32.72-90.77,57.19-132.31c12.2-20.78,25.68-40.82,40.17-60.1l11.05-14.33c3.8-4.68,7.51-9.46,11.39-14.05
		c7.74-9.21,16.19-17.82,25.19-25.83c17.98-16.06,38.14-29.58,59.24-41.29c10.55-5.87,21.37-11.26,32.27-16.45l16.36-7.82
		c2.72-1.32,5.4-2.71,8.03-4.21c1.31-0.75,2.59-1.57,3.82-2.45C1426.02,663.11,1427.35,662.18,1427.83,660.7z"/>
	<path class="st4" d="M664.76,441.77c15.82,20.41,35.17,37.96,56.55,52.45c21.42,14.49,44.69,25.9,66.48,39.59
		c10.84,6.91,21.44,14.25,30.88,22.96c4.96,4.09,9.17,8.95,13.68,13.5c2.16,2.37,4.09,4.93,6.14,7.39c2.01,2.5,4.12,4.9,5.94,7.56
		c15.42,20.63,29.47,42.25,42.64,64.36c6.65,11.02,12.77,22.35,18.93,33.65l8.82,17.17c2.95,5.72,5.61,11.58,8.44,17.36
		c11.01,23.26,21.06,46.97,30.23,71.02c18.17,48.16,32.81,97.61,44.38,147.74c11.55,50.14,20.02,100.99,25.44,152.12
		c2.7,25.56,4.68,51.21,5.6,76.86c0.5,12.79,0.52,25.7,0.64,38.6l0.35,38.69l2.77,309.49l13.6-0.14l-6.17-309.57l-0.77-38.69
		c-0.27-12.89-0.42-25.79-1.07-38.77c-1.21-25.9-3.49-51.71-6.49-77.42c-6.03-51.42-15.11-102.45-27.27-152.74
		c-12.19-50.28-27.45-99.82-46.24-148.01c-9.47-24.07-19.84-47.78-31.15-71.03c-2.9-5.78-5.64-11.63-8.67-17.35l-9.05-17.15
		c-6.31-11.28-12.59-22.59-19.38-33.59c-13.47-22.06-27.81-43.61-43.51-64.14c-1.85-2.64-4.03-5.07-6.09-7.58
		c-2.11-2.47-4.1-5.04-6.31-7.41c-4.62-4.56-8.94-9.43-14-13.51c-9.64-8.7-20.42-15.99-31.39-22.81
		c-22.05-13.51-45.39-24.64-66.91-38.85C700.31,479.31,680.81,462.01,664.76,441.77z"/>
	<path class="st4" d="M1443.19,937.96c-22.21,25.92-49.07,47.42-77.96,65.32c-28.99,17.86-59.65,32.73-89.97,48.35
		c-15.21,7.72-30.17,15.99-44.93,24.62l-10.89,6.8c-3.64,2.26-7.27,4.53-10.75,7.03l-10.56,7.34c-3.48,2.5-6.8,5.24-10.2,7.85
		c-6.92,5.1-13.16,11.03-19.63,16.7l-2.41,2.15l-2.26,2.31l-4.51,4.62c-2.96,3.12-6.13,6.06-8.91,9.34l-8.31,9.9l-4.15,4.95
		l-3.75,5.26l-7.5,10.53c-1.3,1.72-2.42,3.56-3.5,5.43l-3.32,5.55c-17.85,29.54-30.2,62.1-38.71,95.38
		c-4.57,16.61-7.3,33.58-10.35,50.49c-2.06,17.03-4.65,34.04-5.54,51.17c-5.13,68.46-2.07,137.14,4.58,205.2l13.52-1.44
		c-7.73-67.43-11.87-135.43-7.92-203.06c0.59-16.95,2.87-33.7,4.61-50.54c2.73-16.67,5.14-33.43,9.35-49.78
		c7.81-32.8,19.35-64.83,36.3-93.96l3.15-5.48c1.03-1.84,2.09-3.66,3.33-5.36l7.15-10.41l3.58-5.21l3.98-4.91l7.96-9.82
		c2.67-3.26,5.73-6.18,8.58-9.29l4.34-4.6l2.17-2.3l2.33-2.15c6.26-5.66,12.28-11.6,19.02-16.73c3.31-2.62,6.53-5.38,9.92-7.9
		l10.31-7.41c3.39-2.54,6.95-4.84,10.52-7.14l10.68-6.91c14.51-8.81,29.26-17.28,44.31-25.24c29.99-16.09,60.51-31.52,89.29-49.92
		C1394.83,986.27,1421.43,964.24,1443.19,937.96z"/>
	<path class="st6" d="M532.75,506.93c27.82,3.26,55.37,8.7,82.21,16.61c6.66,2.14,13.4,4.02,19.98,6.38l19.62,7.42
		c12.81,5.58,25.69,11.08,37.9,17.89c24.61,13.19,48.19,28.46,69.54,46.49c5.57,4.22,10.64,9.03,15.81,13.72
		c5.11,4.75,10.49,9.22,15.22,14.37l14.6,15.01c4.66,5.19,9.15,10.55,13.73,15.81c2.26,2.66,4.6,5.25,6.8,7.96l6.37,8.31
		c4.21,5.57,8.58,11.01,12.65,16.68l11.8,17.3c1.93,2.91,4.01,5.71,5.81,8.7l5.43,8.95l10.84,17.91l9.95,18.43l4.97,9.21
		c1.68,3.06,3.07,6.27,4.62,9.4l9.05,18.88c23.56,50.65,41.41,103.81,55.92,157.72c14.54,53.95,25.15,108.91,33.44,164.17
		c1.04,6.91,2.19,13.8,3.13,20.72l2.62,20.8c1.67,13.87,3.71,27.7,4.94,41.63l4.18,41.71l3.2,41.81c0.49,6.97,1.15,13.93,1.49,20.91
		l1.11,20.94c0.68,13.96,1.63,27.91,2.08,41.88c0.82,27.95,2.02,55.88,2.1,83.84c0.13,13.98,0.39,27.96,0.43,41.93
		c0,13.97-0.1,27.94-0.38,41.88c-0.29,13.94-0.76,27.87-1.6,41.7c-0.47,6.9-0.98,13.8-1.8,20.55c-0.38,3.38-0.87,6.72-1.47,9.91
		c-0.31,1.59-0.63,3.15-1.03,4.51c-0.18,0.79-0.4,1.18-0.58,1.78c-0.08,0.19-0.11,0.18-0.14,0.3c-0.01,0.03,0.21-0.37,0.37-0.5
		c0.06-0.04,0.11-0.14,0.75-0.68c0.88-0.31-0.12-0.72,3.96-1.24l-0.23,13.6c4.31-0.55,3.46-1.14,4.52-1.56
		c0.83-0.65,1.01-0.93,1.2-1.15c0.4-0.48,0.94-1.21,1.12-1.57c0.35-0.67,0.75-1.44,1-2.06c0.37-1.06,0.85-2.29,1.05-3.21
		c0.56-2.01,0.93-3.88,1.27-5.73c0.65-3.7,1.13-7.3,1.51-10.87c0.8-7.16,1.24-14.24,1.65-21.31c0.71-14.13,1.04-28.21,1.19-42.27
		c0.14-14.06,0.1-28.11-0.04-42.14c-0.18-14.03-0.57-28.06-0.85-42.08c-0.36-28.06-1.85-56.09-2.96-84.12
		c-0.59-14.02-1.69-28.01-2.51-42.02l-1.33-21c-0.41-7-1.15-13.99-1.71-20.98l-3.64-41.94l-4.62-41.85
		c-1.37-13.97-3.57-27.84-5.38-41.76l-2.85-20.86c-1.02-6.94-2.25-13.86-3.36-20.79c-8.89-55.42-20.11-110.55-35.28-164.65
		c-15.14-54.07-33.64-107.35-57.86-158.09l-9.31-18.91c-1.59-3.13-3.01-6.35-4.74-9.41l-5.1-9.22l-10.2-18.44l-11.09-17.92
		l-5.56-8.95c-1.84-2.99-3.97-5.8-5.94-8.7l-12.05-17.29c-4.16-5.66-8.61-11.1-12.91-16.66l-6.5-8.3c-2.24-2.7-4.62-5.29-6.92-7.94
		c-4.67-5.25-9.23-10.59-13.98-15.77l-14.85-14.96c-4.81-5.13-10.27-9.58-15.46-14.31c-5.25-4.67-10.4-9.45-16.04-13.64
		c-21.65-17.91-45.52-33.03-70.36-46.02c-12.33-6.72-25.31-12.1-38.22-17.57l-19.75-7.24c-6.62-2.3-13.4-4.11-20.09-6.19
		C588.23,515.07,560.6,509.91,532.75,506.93z"/>
	<path class="st0" d="M630.81,596.85c5.25-12.3,10.3-15.5,30.9-10.88c20.6,4.62,41.34,39.05,77.13,67.21
		c0.93,0.73,1.88,1.5,2.83,2.28c0.87,4.4,1.46,8.8,1.6,13.04c0.86,25.5-3.93,38.99-7.95,48.96c-3.48,8.61,16.97-17.52,21.05-49.09
		c34.92,32.48,80.44,85.9,112.57,125.3c37.86,46.43,54.42,82.42,74.01,130.91c19.59,48.49,4.54,54.77,4.49,92.87
		c-0.05,38.1-10.94,55.17-17.68,59.98c0,0-16.57,17.76-52.55,4.66c-23.97-8.73-35.93-22.36-58.63-43.59
		c-22.7-21.23-56.9-82.48-71.81-118.44c-8.59-20.71-14-36.13-19.92-51.4c35.7,7.18,50.22-1.31,50.22-1.31s25.05-8.21,12.47-5.76
		c-12.58,2.45-29.45,4.99-59.08-1.8c-2.67-0.61-5.36-1.39-8.06-2.29c-3.15-7.66-6.63-15.57-10.9-24.38
		c-15.02-30.99-65.71-131.55-75.04-158.27C627.14,648.12,625.56,609.15,630.81,596.85z"/>
	<path class="st7" d="M646.27,601.45c8.02,20.93,18.19,40.98,28.84,60.69c10.79,19.65,22.41,38.85,34.7,57.61
		c12.27,18.79,25.45,36.91,37.53,55.75c12.16,18.8,23.91,37.86,35.44,57.05c23.02,38.42,45.14,77.37,67.14,116.41
		c11.01,19.51,22.02,39.05,33.29,58.44l8.2,14.59l4.1,7.29l3.83,7.44l7.65,14.88c2.54,4.96,4.79,10.07,7.2,15.1
		c9.66,20.11,18.01,40.83,26.06,61.63c7.68,20.95,14.98,42.04,21.2,63.47c6.49,21.35,11.87,43.02,16.99,64.73
		c4.83,21.78,9.27,43.65,12.89,65.67c7.35,44.01,12.18,88.43,14.84,132.96c1.29,22.26,2.02,44.56,2.11,66.84
		c0.04,22.23-0.36,44.68-1.94,66.58l13.56,1.07c1.36-22.81,1.46-45.21,1.13-67.78c-0.37-22.52-1.39-45.02-2.98-67.48
		c-3.25-44.9-8.7-89.64-16.66-133.93c-3.93-22.16-8.68-44.16-13.83-66.06c-5.44-21.83-11.13-43.61-17.96-65.06
		c-6.54-21.53-14.18-42.72-22.19-63.74c-8.39-20.88-17.07-41.65-27.07-61.82c-2.5-5.04-4.83-10.16-7.46-15.14l-7.91-14.91
		l-3.95-7.45l-4.23-7.3l-8.46-14.6c-11.49-19.21-22.73-38.57-33.99-57.95c-22.5-38.76-45.13-77.47-68.66-115.64
		c-11.79-19.07-23.8-38.01-36.22-56.68c-12.35-18.74-25.78-36.72-38.24-55.29c-12.5-18.57-24.35-37.59-35.37-57.08
		C664.97,642.17,654.56,622.28,646.27,601.45z"/>
	<path class="st0" d="M500.98,964.29c28.91,7.71,45.52-9.13,97.13,3.13c47.94,11.38,88.85,10.42,118.42,22.77
		c1.69,1.96,3.28,3.96,4.72,5.99c16.63,23.4,20.51,39.03,22.92,50.89c1.83,9.02,4.36-18.78-5.83-47.53
		c26.95,8.74,61.64,9.92,132.88,39.45c86.36,35.79,132.69,139.21,81.06,184.58c-17.53,15.4-38.45-3.58-38.45-3.58
		c-39.22-32.64-109.76-132-368.31-223.84c-48.34-17.17-61.36-21.52-72.35-29.86C462.18,957.95,472.07,956.59,500.98,964.29z"/>
	<path class="st4" d="M507.8,980.83c40,7.94,79.29,19.11,117.87,32.15c19.27,6.6,38.33,13.8,57.16,21.53
		c18.83,7.74,37.31,16.29,55.56,25.28c36.28,18.36,71.4,39.2,103.49,64.07c32.31,24.53,61.27,53.42,85.08,86.04
		c2.91,4.12,5.6,8.39,8.41,12.57l4.18,6.3c1.33,2.14,2.51,4.37,3.77,6.55l7.44,13.15c2.22,4.52,4.31,9.1,6.47,13.64l3.22,6.82
		c0.99,2.32,1.9,4.68,2.85,7.02c1.85,4.7,3.87,9.33,5.5,14.13c1.68,4.77,3.47,9.49,5.06,14.29l4.61,14.45
		c11.57,38.78,19.29,78.69,23.92,118.95c4.67,40.26,6.59,80.85,6.33,121.4c-0.35,40.49-2.51,81.26-7.59,121.14l13.47,1.83
		c4.65-41.09,6.21-81.93,6.01-122.97c-0.3-40.98-2.82-81.97-8.11-122.65c-5.25-40.67-13.63-81.01-25.92-120.22l-4.89-14.61
		c-1.68-4.85-3.57-9.64-5.34-14.46c-1.72-4.84-3.84-9.53-5.79-14.29c-1-2.37-1.96-4.75-3-7.1l-3.4-6.96
		c-2.28-4.63-4.49-9.29-6.83-13.89l-7.8-13.36c-1.32-2.21-2.55-4.48-3.95-6.65l-4.35-6.38c-2.93-4.24-5.75-8.55-8.77-12.71
		c-24.74-32.93-54.54-61.78-87.49-86.1c-32.75-24.65-68.38-45.12-105.07-63.05c-18.45-8.77-37.11-17.1-56.1-24.59
		c-18.99-7.49-38.19-14.43-57.58-20.78C587.39,998.85,547.91,988.22,507.8,980.83z"/>
</g>
<g>
	<path class="st8" d="M911.93,1423.54c-3.37,0-6.14,2.7-6.19,6.07c-0.05,3.72-0.08,7.45-0.08,11.2
		c0,99.66,18.05,189.18,46.71,250.64c1.01,2.17,3.21,3.54,5.61,3.54h160.71c2.4,0,4.59-1.36,5.61-3.54
		c28.66-61.47,46.71-150.98,46.71-250.64c0-3.75-0.03-7.48-0.08-11.2c-0.05-3.37-2.81-6.07-6.19-6.07H911.93z"/>
	<path class="st9" d="M1169.5,1490.09H933.29l232.81,39.19C1167.55,1516.5,1168.69,1503.42,1169.5,1490.09z"/>
</g>
<rect class="st10" width="2000" height="2000"/>
</svg>
